ej1/res/sumador.vcd
$date
	Sat May 15 19:26:41 2021
$end
$version
	Icarus Verilog
$end
$timescale
	1ps
$end
$scope module top $end
$var wire 1 ! \$1 $end
$var wire 1 " \$11 $end
$var wire 1 # \$16 $end
$var wire 1 $ \$3 $end
$var wire 1 % \$5 $end
$var wire 1 & \$7 $end
$var wire 1 ' \$9 $end
$var wire 16 ( a__data [15:0] $end
$var wire 1 ) a__ready $end
$var wire 1 * a__valid $end
$var wire 16 + b__data [15:0] $end
$var wire 1 , b__ready $end
$var wire 1 - b__valid $end
$var wire 1 . clk $end
$var wire 1 / r__ready $end
$var wire 1 0 rst $end
$var wire 1 1 \rst$15 $end
$var wire 17 2 \$13 [16:0] $end
$var reg 1 3 initial $end
$var reg 17 4 r__data [16:0] $end
$var reg 17 5 \r__data$next [16:0] $end
$var reg 1 6 r__valid $end
$var reg 1 7 \r__valid$next $end
$upscope $end
$enddefinitions $end
#0
$dumpvars
07
06
b0 5
b0 4
03
bx 2
01
10
z/
1.
z-
z,
bz +
z*
z)
bz (
x'
x&
x%
x$
0#
x"
x!
$end
#5000
0.
#10000
1.
#15000
0.
#20000
b10111011100100110 5
17
1"
1%
1$
1'
1&
1!
00
1*
b10111011100100110 2
b1000101010001111 (
1-
b1110110010010111 +
1,
1)
1/
1.
#25000
0.
#30000
b1000100010100101 5
b101101001010011 (
b1000100010100101 2
b10111001010010 +
16
b10111011100100110 4
1.
#35000
0.
#40000
b10011011011101111 5
b1011000110100010 (
b10011011011101111 2
b1000010101001101 +
b1000100010100101 4
1.
#45000
0.
#50000
b10010110000110001 5
b1100000101011001 (
b10010110000110001 2
b110101011011000 +
b10011011011101111 4
1.
#55000
0.
#60000
b10100000001010001 5
b1001110010010000 (
b10100000001010001 2
b1010001111000001 +
b10010110000110001 4
1.
#65000
0.
#70000
b1111110111111000 5
b1101101100100110 (
b1111110111111000 2
b10001011010010 +
b10100000001010001 4
1.
#75000
0.
#80000
b1101101110100110 5
b1001000011111101 (
b1101101110100110 2
b100101010101001 +
b1111110111111000 4
1.
#85000
0.
#90000
b1111101010001110 5
b1100110110 (
b1111101010001110 2
b1111011101011000 +
b1101101110100110 4
1.
#95000
0.
#100000
b1000011010101000 5
b111101010000111 (
b1000011010101000 2
b110000100001 +
b1111101010001110 4
1.
#105000
0.
#110000
b11001100001010 5
b10010111010101 (
b11001100001010 2
b110100110101 +
b1000011010101000 4
1.
#115000
0.
#120000
b10010010000011001 5
b1010101111101100 (
b10010010000011001 2
b111100000101101 +
b11001100001010 4
1.
#125000
0.
#130000
b10000111111110100 5
b10111011000010 (
b10000111111110100 2
b1110000100110010 +
b10010010000011001 4
1.
#135000
0.
#140000
b10110000110110001 5
b1001011101101000 (
b10110000110110001 2
b1100101001001001 +
b10000111111110100 4
1.
#145000
0.
#150000
b10010001111011001 5
b1101100010101001 (
b10010001111011001 2
b100101100110000 +
b10110000110110001 4
1.
#155000
0.
#160000
b11000000011101110 5
b1110011110011100 (
b11000000011101110 2
b1001100101010010 +
b10010001111011001 4
1.
#165000
0.
#170000
b10010110001001011 5
b11111011010000 (
b10010110001001011 2
b1110110101111011 +
b11000000011101110 4
1.
#175000
0.
#180000
b1000100111101000 5
b101100000000110 (
b1000100111101000 2
b11000111100010 +
b10010110001001011 4
1.
#185000
0.
#190000
b10001110100000011 5
b1100100000101100 (
b10001110100000011 2
b101010011010111 +
b1000100111101000 4
1.
#195000
0.
#200000
b10110101101011101 5
b111000000011110 (
b10110101101011101 2
b1111101100111111 +
b10001110100000011 4
1.
#205000
0.
#210000
b10110100101111110 5
b1101111000100010 (
b10110100101111110 2
b1000101101011100 +
b10110101101011101 4
1.
#215000
0.
#220000
b11001100011101011 5
b1111110101110011 (
b11001100011101011 2
b1001101101111000 +
b10110100101111110 4
1.
#225000
0.
#230000
b101001110101100 5
b10000001010111 (
b101001110101100 2
b11001101010101 +
b11001100011101011 4
1.
#235000
0.
#240000
b11011001111111010 5
b1101001010000001 (
b11011001111111010 2
b1110000101111001 +
b101001110101100 4
1.
#245000
0.
#250000
b1001000001100001 5
b111111011100100 (
b1001000001100001 2
b1000101111101 +
b11011001111111010 4
1.
#255000
0.
#260000
b10010000001000110 5
b1011011101001010 (
b10010000001000110 2
b110100011111100 +
b1001000001100001 4
1.
#265000
0.
#270000
b1111110011010010 5
b11011001001001 (
b1111110011010010 2
b1100011010001001 +
b10010000001000110 4
1.
#275000
0.
#280000
b1001111011000011 5
b1001011110000111 (
b1001111011000011 2
b11100111100 +
b1111110011010010 4
1.
#285000
0.
#290000
b11010000010010100 5
b1110100000110010 (
b11010000010010100 2
b1011100001100010 +
b1001111011000011 4
1.
#295000
0.
#300000
b11000011011110001 5
b1101101110001001 (
b11000011011110001 2
b1010101101101000 +
b11010000010010100 4
1.
#305000
0.
#310000
b1010001001000011 5
b1000000100110001 (
b1010001001000011 2
b10000100010010 +
b11000011011110001 4
1.
#315000
0.
#320000
b10011110001111010 5
b101110000000001 (
b10011110001111010 2
b1110000001111001 +
b1010001001000011 4
1.
#325000
0.
#330000
b10001011001000101 5
b1010110001011000 (
b10001011001000101 2
b110100111101101 +
b10011110001111010 4
1.
#335000
0.
#340000
b1101100000001011 5
b1010100001110 (
b1101100000001011 2
b1100001011111101 +
b10001011001000101 4
1.
#345000
0.
#350000
b1111101111110011 5
b1110100000100011 (
b1111101111110011 2
b1001111010000 +
b1101100000001011 4
1.
#355000
0.
#360000
b110110111010011 5
b1111000110 (
b110110111010011 2
b110101000001101 +
b1111101111110011 4
1.
#365000
0.
#370000
b1001101011010001 5
b10000001000001 (
b1001101011010001 2
b111101010010000 +
b110110111010011 4
1.
#375000
0.
#380000
b110010011101000 5
b10101011111111 (
b110010011101000 2
b11100111101001 +
b1001101011010001 4
1.
#385000
0.
#390000
b11001011110110000 5
b1111111101101011 (
b11001011110110000 2
b1001100001000101 +
b110010011101000 4
1.
#395000
0.
#400000
b110011101110 5
b10101010000 (
b110011101110 2
b11110011110 +
b11001011110110000 4
1.
#405000
0.
#410000
b10011111101100100 5
b1110011110011100 (
b10011111101100100 2
b101011111001000 +
b110011101110 4
1.
#415000
0.
#420000
b1100111011100111 5
b11110100101110 (
b1100111011100111 2
b1001000110111001 +
b10011111101100100 4
1.
#425000
0.
#430000
b10000100011001011 5
b11000000101101 (
b10000100011001011 2
b1101100010011110 +
b1100111011100111 4
1.
#435000
0.
#440000
b1101001011000011 5
b100100110110110 (
b1101001011000011 2
b1000100100001101 +
b10000100011001011 4
1.
#445000
0.
#450000
b1110010101110001 5
b101000101001101 (
b1110010101110001 2
b1001010000100100 +
b1101001011000011 4
1.
#455000
0.
#460000
b101101000111001 5
b1001101001100 (
b101101000111001 2
b100011011101101 +
b1110010101110001 4
1.
#465000
0.
#470000
b11110111011101 5
b10001000011001 (
b11110111011101 2
b1101111000100 +
b101101000111001 4
1.
#475000
0.
#480000
b10110101000100011 5
b111110001111000 (
b10110101000100011 2
b1110110110101011 +
b11110111011101 4
1.
#485000
0.
#490000
b10011111000001110 5
b1011101111000100 (
b10011111000001110 2
b1000001001001010 +
b10110101000100011 4
1.
#495000
0.
#500000
b10011001011101101 5
b101100110010111 (
b10011001011101101 2
b1101100101010110 +
b10011111000001110 4
1.
#505000
0.
#510000
b10110110100110111 5
b111011101100100 (
b10110110100110111 2
b1111010111010011 +
b10011001011101101 4
1.
#515000
0.
#520000
b10011101101101001 5
b1111001110101111 (
b10011101101101001 2
b100011110111010 +
b10110110100110111 4
1.
#525000
0.
#530000
b10001110111000011 5
b1100010101001010 (
b10001110111000011 2
b101100001111001 +
b10011101101101001 4
1.
#535000
0.
#540000
b10000101010010011 5
b110001010100011 (
b10000101010010011 2
b1010011111110000 +
b10001110111000011 4
1.
#545000
0.
#550000
b11010010100100111 5
b1011001100101010 (
b11010010100100111 2
b1111000111111101 +
b10000101010010011 4
1.
#555000
0.
#560000
b10000010001011000 5
b10110000111100 (
b10000010001011000 2
b1101100000011100 +
b11010010100100111 4
1.
#565000
0.
#570000
b10111110111000101 5
b1001001001100101 (
b10111110111000101 2
b1110101101100000 +
b10000010001011000 4
1.
#575000
0.
#580000
b11010001011011011 5
b1100011001101111 (
b11010001011011011 2
b1101110001101100 +
b10111110111000101 4
1.
#585000
0.
#590000
b101011101000110 5
b10111001111011 (
b101011101000110 2
b10100011001011 +
b11010001011011011 4
1.
#595000
0.
#600000
b1000111010000010 5
b100110000010110 (
b1000111010000010 2
b100001001101100 +
b101011101000110 4
1.
#605000
0.
#610000
b10110001100001011 5
b1010110010010010 (
b10110001100001011 2
b1011011001111001 +
b1000111010000010 4
1.
#615000
0.
#620000
b10000111010101010 5
b100100011101111 (
b10000111010101010 2
b1100010110111011 +
b10110001100001011 4
1.
#625000
0.
#630000
b1100111000101000 5
b1100110010001101 (
b1100111000101000 2
b110011011 +
b10000111010101010 4
1.
#635000
0.
#640000
b11010110111101111 5
b1110011111001111 (
b11010110111101111 2
b1100011000100000 +
b1100111000101000 4
1.
#645000
0.
#650000
b10110010001000010 5
b1100100010100000 (
b10110010001000010 2
b1001101110100010 +
b11010110111101111 4
1.
#655000
0.
#660000
b10001101110110111 5
b1010111010011101 (
b10001101110110111 2
b110110100011010 +
b10110010001000010 4
1.
#665000
0.
#670000
b10010110000110101 5
b11000010111011 (
b10010110000110101 2
b1111101101111010 +
b10001101110110111 4
1.
#675000
0.
#680000
b1101000001010001 5
b111100011011001 (
b1101000001010001 2
b101011101111000 +
b10010110000110101 4
1.
#685000
0.
#690000
b10001000001010000 5
b1011011110000111 (
b10001000001010000 2
b101100011001001 +
b1101000001010001 4
1.
#695000
0.
#700000
b1011111101110111 5
b110000100011111 (
b1011111101110111 2
b101111001011000 +
b10001000001010000 4
1.
#705000
0.
#710000
b1111010110101000 5
b100100001111 (
b1111010110101000 2
b1110110010011001 +
b1011111101110111 4
1.
#715000
0.
#720000
b10100010111011011 5
b1111110001011010 (
b10100010111011011 2
b100100110000001 +
b1111010110101000 4
1.
#725000
0.
#730000
b1111101001111011 5
b1000110001001 (
b1111101001111011 2
b1110100011110010 +
b10100010111011011 4
1.
#735000
0.
#740000
b1100000100100111 5
b1010011010110101 (
b1100000100100111 2
b1101001110010 +
b1111101001111011 4
1.
#745000
0.
#750000
b10010111111011011 5
b1000111010101100 (
b10010111111011011 2
b1010000100101111 +
b1100000100100111 4
1.
#755000
0.
#760000
b1101101000100 5
b1011101000010 (
b1101101000100 2
b10000000010 +
b10010111111011011 4
1.
#765000
0.
#770000
b1100000000100110 5
b10010000001110 (
b1100000000100110 2
b1001110000011000 +
b1101101000100 4
1.
#775000
0.
#780000
b1111101110010000 5
b1001000110001110 (
b1111101110010000 2
b110101000000010 +
b1100000000100110 4
1.
#785000
0.
#790000
b1101110101001111 5
b1001001111011 (
b1101110101001111 2
b1100101011010100 +
b1111101110010000 4
1.
#795000
0.
#800000
b1010100010111010 5
b110011000010011 (
b1010100010111010 2
b100001010100111 +
b1101110101001111 4
1.
#805000
0.
#810000
b1101000001100100 5
b1010111010001100 (
b1101000001100100 2
b10000111011000 +
b1010100010111010 4
1.
#815000
0.
#820000
b101111110100110 5
b110010001 (
b101111110100110 2
b101111000010101 +
b1101000001100100 4
1.
#825000
0.
#830000
b10001100000110110 5
b11001111010100 (
b10001100000110110 2
b1110010001100010 +
b101111110100110 4
1.
#835000
0.
#840000
b1110110101101110 5
b1100010000110010 (
b1110110101101110 2
b10100100111100 +
b10001100000110110 4
1.
#845000
0.
#850000
b10011010001110101 5
b110010111101100 (
b10011010001110101 2
b1100111010001001 +
b1110110101101110 4
1.
#855000
0.
#860000
b10010011001001011 5
b100000110010001 (
b10010011001001011 2
b1110010010111010 +
b10011010001110101 4
1.
#865000
0.
#870000
b110001111010011 5
b11110010010001 (
b110001111010011 2
b10011101000010 +
b10010011001001011 4
1.
#875000
0.
#880000
b10110111001110010 5
b1101000011011011 (
b10110111001110010 2
b1001110110010111 +
b110001111010011 4
1.
#885000
0.
#890000
b1001001111011101 5
b111111110010011 (
b1001001111011101 2
b1010001001010 +
b10110111001110010 4
1.
#895000
0.
#900000
b1111100000011000 5
b1001010111100 (
b1111100000011000 2
b1110010101011100 +
b1001001111011101 4
1.
#905000
0.
#910000
b111001001101111 5
b10100000001110 (
b111001001101111 2
b100101001100001 +
b1111100000011000 4
1.
#915000
0.
#920000
b10100111100000111 5
b1111110011010001 (
b10100111100000111 2
b101001000110110 +
b111001001101111 4
1.
#925000
0.
#930000
b1110010111110011 5
b100011111010100 (
b1110010111110011 2
b1001111000011111 +
b10100111100000111 4
1.
#935000
0.
#940000
b10010111100011111 5
b1010100101100110 (
b10010111100011111 2
b1000010110111001 +
b1110010111110011 4
1.
#945000
0.
#950000
b10010111000010111 5
b110111101110011 (
b10010111000010111 2
b1011111010100100 +
b10010111100011111 4
1.
#955000
0.
#960000
b1110000100011100 5
b101111110001011 (
b1110000100011100 2
b1000000110010001 +
b10010111000010111 4
1.
#965000
0.
#970000
b10001110011011110 5
b1111100111101110 (
b10001110011011110 2
b10001011110000 +
b1110000100011100 4
1.
#975000
0.
#980000
b10111110111110100 5
b1111011100110111 (
b10111110111110100 2
b1000011010111101 +
b10001110011011110 4
1.
#985000
0.
#990000
b11011111000011000 5
b1101010101100011 (
b11011111000011000 2
b1110100010110101 +
b10111110111110100 4
1.
#995000
0.
#1000000
b1000000001110000 5
b100100011101010 (
b1000000001110000 2
b11011110000110 +
b11011111000011000 4
1.
#1005000
0.
#1010000
b1101111110110010 5
b110000010110111 (
b1101111110110010 2
b111111011111011 +
b1000000001110000 4
1.
#1015000
0.
#1020000
0"
0%
0!
0&
0'
0$
0*
0-
b1101111110110010 4
1.
#1025000
0.
#1030000
1.
#1030001
b0 5
07
10
#1035001
0.
#1040001
b0 4
06
1.
#1045001
0.
#1050001
1.
#1055001
0.
#1060001
b0 5
07
1"
1%
1!
1&
1'
1$
1*
1-
1.
