ej1/incrementador.vcd
$date
	Sun May  9 15:25:59 2021
$end
$version
	Icarus Verilog
$end
$timescale
	1ps
$end
$scope module top $end
$var wire 1 ! \$1 $end
$var wire 1 " \$10 $end
$var wire 1 # \$12 $end
$var wire 1 $ \$14 $end
$var wire 1 % \$16 $end
$var wire 1 & \$18 $end
$var wire 1 ' \$20 $end
$var wire 1 ( \$3 $end
$var wire 1 ) \$5 $end
$var wire 6 * \$7 [5:0] $end
$var wire 5 + a__data [4:0] $end
$var wire 1 , a__ready $end
$var wire 1 - a__valid $end
$var wire 5 . b__data [4:0] $end
$var wire 1 / b__ready $end
$var wire 1 0 clk $end
$var wire 1 1 r__ready $end
$var wire 1 2 rst $end
$var wire 6 3 \$8 [5:0] $end
$var reg 1 4 initial $end
$var reg 5 5 r__data [4:0] $end
$var reg 5 6 \r__data$next [4:0] $end
$var reg 1 7 r__valid $end
$var reg 1 8 \r__valid$next $end
$upscope $end
$enddefinitions $end
#0
$dumpvars
08
07
b0 6
b0 5
04
bx 3
12
z1
10
1/
b0 .
z-
1,
bz +
bx *
x)
x(
1'
0&
1%
1$
0#
1"
0!
$end
#5000
00
#10000
b100 6
18
1(
1)
02
1-
b100 *
b100 3
b100 +
11
10
#15000
00
#20000
b10101 6
b10101 *
b10101 3
b10101 +
18
1!
1&
0%
1#
0"
b100 5
17
10
#25000
00
#30000
b110 6
b110 *
b110 3
b110 +
b10101 5
10
#35000
00
#40000
b10111 6
b10111 *
b10111 3
b10111 +
b110 5
10
#45000
00
#50000
b11110 6
b11110 *
b11110 3
b11110 +
b10111 5
10
#55000
00
#60000
b1011 6
b1011 *
b1011 3
b1011 +
b11110 5
10
#65000
00
#70000
b11111 6
b11111 *
b11111 3
b11111 +
b1011 5
10
#75000
00
#80000
b11101 6
b11101 *
b11101 3
b11101 +
b11111 5
10
#85000
00
#90000
b11010 6
b11010 *
b11010 3
b11010 +
b11101 5
10
#95000
00
#100000
b11001 6
b11001 *
b11001 3
b11001 +
b11010 5
10
#105000
00
#110000
b10100 6
b10100 *
b10100 3
b10100 +
b11001 5
10
#115000
00
#120000
b11100 6
b11100 *
b11100 3
b11100 +
b10100 5
10
#125000
00
#130000
b1010 6
b1010 *
b1010 3
b1010 +
b11100 5
10
#135000
00
#140000
b10011 6
b10011 *
b10011 3
b10011 +
b1010 5
10
#145000
00
#150000
b10100 6
b10100 *
b10100 3
b10100 +
b10011 5
10
#155000
00
#160000
b10001 6
b10001 *
b10001 3
b10001 +
b10100 5
10
#165000
00
#170000
b1111 6
b1111 *
b1111 3
b1111 +
b10001 5
10
#175000
00
#180000
b11100 6
b11100 *
b11100 3
b11100 +
b1111 5
10
#185000
00
#190000
b11000 6
b11000 *
b11000 3
b11000 +
b11100 5
10
#195000
00
#200000
b1001 6
b1001 *
b1001 3
b1001 +
b11000 5
10
#205000
00
#210000
b1111 6
b1111 *
b1111 3
b1111 +
b1001 5
10
#215000
00
#220000
b1010 6
b1010 *
b1010 3
b1010 +
b1111 5
10
#225000
00
#230000
b11001 6
b11001 *
b11001 3
b11001 +
b1010 5
10
#235000
00
#240000
b111 6
b111 *
b111 3
b111 +
b11001 5
10
#245000
00
#250000
b11011 6
b11011 *
b11011 3
b11011 +
b111 5
10
#255000
00
#260000
b10101 6
b10101 *
b10101 3
b10101 +
b11011 5
10
#265000
00
#270000
b11100 6
b11100 *
b11100 3
b11100 +
b10101 5
10
#275000
00
#280000
b1111 6
b1111 *
b1111 3
b1111 +
b11100 5
10
#285000
00
#290000
b11011 6
b11011 *
b11011 3
b11011 +
b1111 5
10
#295000
00
#300000
b1111 6
b1111 *
b1111 3
b1111 +
b11011 5
10
#305000
00
#310000
b111 6
b111 *
b111 3
b111 +
b1111 5
10
#315000
00
#320000
b11 6
b11 *
b11 3
b11 +
b111 5
10
#325000
00
#330000
b111 6
b111 *
b111 3
b111 +
b11 5
10
#335000
00
#340000
b10101 6
b10101 *
b10101 3
b10101 +
b111 5
10
#345000
00
#350000
b1100 6
b1100 *
b1100 3
b1100 +
b10101 5
10
#355000
00
#360000
b1000 6
b1000 *
b1000 3
b1000 +
b1100 5
10
#365000
00
#370000
b11001 6
b11001 *
b11001 3
b11001 +
b1000 5
10
#375000
00
#380000
b10001 6
b10001 *
b10001 3
b10001 +
b11001 5
10
#385000
00
#390000
b1111 6
b1111 *
b1111 3
b1111 +
b10001 5
10
#395000
00
#400000
b10010 6
b10010 *
b10010 3
b10010 +
b1111 5
10
#405000
00
#410000
b10110 6
b10110 *
b10110 3
b10110 +
b10010 5
10
#415000
00
#420000
b0 6
b0 *
b0 3
b0 +
b10110 5
10
#425000
00
#430000
b111 6
b111 *
b111 3
b111 +
b0 5
10
#435000
00
#440000
b11111 6
b11111 *
b11111 3
b11111 +
b111 5
10
#445000
00
#450000
b1100 6
b1100 *
b1100 3
b1100 +
b11111 5
10
#455000
00
#460000
b10110 6
b10110 *
b10110 3
b10110 +
b1100 5
10
#465000
00
#470000
b10101 6
b10101 *
b10101 3
b10101 +
b10110 5
10
#475000
00
#480000
b11010 6
b11010 *
b11010 3
b11010 +
b10101 5
10
#485000
00
#490000
b10100 6
b10100 *
b10100 3
b10100 +
b11010 5
10
#495000
00
#500000
b111 6
b111 *
b111 3
b111 +
b10100 5
10
#505000
00
#510000
b11 6
b11 *
b11 3
b11 +
b111 5
10
#515000
00
#520000
b11010 6
b11010 *
b11010 3
b11010 +
b11 5
10
#525000
00
#530000
b100 6
b100 *
b100 3
b100 +
b11010 5
10
#535000
00
#540000
b11 6
b11 *
b11 3
b11 +
b100 5
10
#545000
00
#550000
b10 6
b10 *
b10 3
b10 +
b11 5
10
#555000
00
#560000
b1100 6
b1100 *
b1100 3
b1100 +
b10 5
10
#565000
00
#570000
b1000 6
b1000 *
b1000 3
b1000 +
b1100 5
10
#575000
00
#580000
b10100 6
b10100 *
b10100 3
b10100 +
b1000 5
10
#585000
00
#590000
b1111 6
b1111 *
b1111 3
b1111 +
b10100 5
10
#595000
00
#600000
b10101 6
b10101 *
b10101 3
b10101 +
b1111 5
10
#605000
00
#610000
b1 6
b1 *
b1 3
b1 +
b10101 5
10
#615000
00
#620000
b11111 6
b11111 *
b11111 3
b11111 +
b1 5
10
#625000
00
#630000
b11 6
b11 *
b11 3
b11 +
b11111 5
10
#635000
00
#640000
b11010 6
b11010 *
b11010 3
b11010 +
b11 5
10
#645000
00
#650000
b10011 6
b10011 *
b10011 3
b10011 +
b11010 5
10
#655000
00
#660000
b1000 6
b1000 *
b1000 3
b1000 +
b10011 5
10
#665000
00
#670000
b10001 6
b10001 *
b10001 3
b10001 +
b1000 5
10
#675000
00
#680000
b11001 6
b11001 *
b11001 3
b11001 +
b10001 5
10
#685000
00
#690000
b1000 6
b1000 *
b1000 3
b1000 +
b11001 5
10
#695000
00
#700000
b111 6
b111 *
b111 3
b111 +
b1000 5
10
#705000
00
#710000
b11011 6
b11011 *
b11011 3
b11011 +
b111 5
10
#715000
00
#720000
b11100 6
b11100 *
b11100 3
b11100 +
b11011 5
10
#725000
00
#730000
b1 6
b1 *
b1 3
b1 +
b11100 5
10
#735000
00
#740000
b11010 6
b11010 *
b11010 3
b11010 +
b1 5
10
#745000
00
#750000
b11011 6
b11011 *
b11011 3
b11011 +
b11010 5
10
#755000
00
#760000
b1110 6
b1110 *
b1110 3
b1110 +
b11011 5
10
#765000
00
#770000
b11101 6
b11101 *
b11101 3
b11101 +
b1110 5
10
#775000
00
#780000
b10110 6
b10110 *
b10110 3
b10110 +
b11101 5
10
#785000
00
#790000
b11111 6
b11111 *
b11111 3
b11111 +
b10110 5
10
#795000
00
#800000
b10101 6
b10101 *
b10101 3
b10101 +
b11111 5
10
#805000
00
#810000
b10000 6
b10000 *
b10000 3
b10000 +
b10101 5
10
#815000
00
#820000
b100 6
b100 *
b100 3
b100 +
b10000 5
10
#825000
00
#830000
b1011 6
b1011 *
b1011 3
b1011 +
b100 5
10
#835000
00
#840000
b11110 6
b11110 *
b11110 3
b11110 +
b1011 5
10
#845000
00
#850000
b1001 6
b1001 *
b1001 3
b1001 +
b11110 5
10
#855000
00
#860000
b1111 6
b1111 *
b1111 3
b1111 +
b1001 5
10
#865000
00
#870000
b110 6
b110 *
b110 3
b110 +
b1111 5
10
#875000
00
#880000
b10111 6
b10111 *
b10111 3
b10111 +
b110 5
10
#885000
00
#890000
b10011 6
b10011 *
b10011 3
b10011 +
b10111 5
10
#895000
00
#900000
b1100 6
b1100 *
b1100 3
b1100 +
b10011 5
10
#905000
00
#910000
b10000 6
b10000 *
b10000 3
b10000 +
b1100 5
10
#915000
00
#920000
b10010 6
b10010 *
b10010 3
b10010 +
b10000 5
10
#925000
00
#930000
b11001 6
b11001 *
b11001 3
b11001 +
b10010 5
10
#935000
00
#940000
b11100 6
b11100 *
b11100 3
b11100 +
b11001 5
10
#945000
00
#950000
b11111 6
b11111 *
b11111 3
b11111 +
b11100 5
10
#955000
00
#960000
b11 6
b11 *
b11 3
b11 +
b11111 5
10
#965000
00
#970000
b11000 6
b11000 *
b11000 3
b11000 +
b11 5
10
#975000
00
#980000
b11111 6
b11111 *
b11111 3
b11111 +
b11000 5
10
#985000
00
#990000
b111 6
b111 *
b111 3
b111 +
b11111 5
10
#995000
00
#1000000
b10010 6
b10010 *
b10010 3
b10010 +
b111 5
10
#1005000
00
#1010000
08
0(
0)
0-
b10010 5
10
#1015000
00
#1020000
0!
0&
1%
0#
1"
07
10
